1: lo: <LOOPBACK,UP,LOWER_UP> mtu 65536 qdisc noqueue state UNKNOWN group default qlen 1000
    link/loopback 00:00:00:00:00:00 brd 00:00:00:00:00:00
    inet 127.0.0.1/8 scope host lo
       valid_lft forever preferred_lft forever
    inet6 ::1/128 scope host
       valid_lft forever preferred_lft forever
2: eth0: <BROADCAST,MULTICAST,UP,LOWER_UP> mtu 1420 qdisc mq state UP group default qlen 1000
    link/ether 00:15:5d:91:50:8c brd ff:ff:ff:ff:ff:ff
    inet 172.18.84.251/20 brd 172.18.95.255 scope global eth0
       valid_lft forever preferred_lft forever
    inet6 fe80::215:5dff:fe91:508c/64 scope link
       valid_lft forever preferred_lft forever
